<?xml version="1.0" encoding="utf-8"?>
<!-- Generator: Adobe Illustrator 19.0.0, SVG Export Plug-In . SVG Version: 6.00 Build 0)  -->
<svg version="1.1" id="Layer_1" xmlns="http://www.w3.org/2000/svg" xmlns:xlink="http://www.w3.org/1999/xlink" x="0px" y="0px"
	 width="100px" height="100px" viewBox="-269 519 100 100" enable-background="new -269 519 100 100" xml:space="preserve">
<g display="none">
	<title>background</title>
	<rect id="canvas_background" x="-1346" y="2594" display="inline" fill="none" width="102" height="102"/>
	<g id="canvasGrid" display="inline">
		<rect x="-1345" y="2595" fill="none" width="100" height="100"/>
	</g>
</g>
<path fill="#FFE715" stroke="#B29E12" stroke-width="2" stroke-miterlimit="10" d="M-218.2,569.4c0,0,111.3,50.2,84.2,81.5
	S-218.2,569.4-218.2,569.4z"/>
</svg>
